{
  "34x18": "cipallottola",
  "50x17": "cipallottola",
  "57x17": "cipallottola",
  "60x16": "finocchio_ninja",
  "78x14": "cipallottola",
  "79x13": "finocchio_ninja",
  "84x13": "cipallottola",
  "92x17": "ananas",
  "136x1": "ananas",
  "153x17": "cipallottola",
  "155x16": "finocchio_ninja",
  "158x14": "finocchio_ninja",
  "171x18": "ananas",
  "175x18": "ananas",
  "179x18": "ananas",
  "183x18": "ananas",
  "189x13": "finocchio_ninja",
  "269x6": "ananas",
  "275x6": "ananas",
  "281x6": "ananas",
  "266x19": "cipallottola",
  "269x19": "cipallottola",
  "272x19": "cipallottola",
  "275x19": "cipallottola",
  "278x19": "cipallottola",
  "281x19": "cipallottola",
  "284x19": "cipallottola",
  "287x19": "cipallottola",
  "325x18": "cipallottola",
  "328x18": "cipallottola",
  "331x17": "finocchio_ninja",
  "333x17": "ananas",
  "336x17": "finocchio_ninja",
  "340x17": "finocchio_ninja",
  "346x17": "ananas",
  "351x17": "finocchio_ninja",
  "353x18": "cipallottola",
  "356x18": "cipallottola",
  "359x18": "cipallottola",
  "361x17": "ananas",
  "362x17": "finocchio_ninja",
  "364x17": "finocchio_ninja"
}